{"notes":[
	{"id":"0","text":"Note 0","created":1528656472584,"updated":1528656472584},
	{"id":"1","text":"Note 1","created":1528656472584,"updated":1528656472584},
	{"id":"2","text":"Note 2","created":1528656472584,"updated":1528656472584},
	{"id":"3","text":"Note 3 edit - sdc","updated":1528656644400},
	{"id":"4","text":"Note 4","created":1528656472584,"updated":1528656472584},
	{"id":"10","text":"Note 10","created":1528656472584,"updated":1528656472584},
	{"id":"11","text":"Note 11","created":1528656472584,"updated":1528656472584},
	{"id":"5","text":"Note 5","created":1528656472584,"updated":1528656472584},
	{"id":"6","text":"Note 6","created":1528656472584,"updated":1528656472584},
	{"id":"7","text":"Note 7","created":1528656472584,"updated":1528656472584},
	{"id":"8","text":"Note 8","created":1528656472584,"updated":1528656472584},
	{"id":"9","text":"Note 9","created":1528656472584,"updated":1528656472584}
	]
}